^C:\USERS\DOGONITI\SOURCE\REPOS\C++ HOMEWORK 5\C++ HOMEWORK 5\C++ HOMEWORK 5.CPP
C:\USERS\DOGONITI\SOURCE\REPOS\C++ HOMEWORK 5\C++ HOMEWORK 5\X64\DEBUG\VC143.PDB
C:\USERS\DOGONITI\SOURCE\REPOS\C++ HOMEWORK 5\C++ HOMEWORK 5\X64\DEBUG\VC143.IDB
C:\USERS\DOGONITI\SOURCE\REPOS\C++ HOMEWORK 5\C++ HOMEWORK 5\X64\DEBUG\C++ HOMEWORK 5.OBJ
